Simulation for Weibull Analysis
…
    return(data)
}

data <- return_gen(eta = 50000, 
                   beta = 3,
                   ship_date_start = 20210101, 
                   ship_date_end = 20211231,
                   shipment_per_day = 10,
                   stop_date = 20230630
)

data

# A tibble: 3,650 × 7
   ship_date  time2failure fail_date           status return_date reported_hours
   <date>            <dbl> <dttm>              <chr>  <date>               <dbl>
 1 2021-01-01       39857. 2025-07-19 16:48:24 S      2023-06-30           21840
 2 2021-01-01       39917. 2025-07-22 05:12:02 S      2023-06-30           21840
 3 2021-01-01       63232. 2028-03-19 15:34:57 S      2023-06-30           21840
 4 2021-01-01       35291. 2025-01-10 10:38:59 S      2023-06-30           21840
 5 2021-01-01       41279. 2025-09-16 22:50:52 S      2023-06-30           21840
 6 2021-01-01       40420. 2025-08-12 04:11:13 S      2023-06-30           21840
 7 2021-01-01       56794. 2027-06-25 10:24:59 S      2023-06-30           21840
 8 2021-01-01       31466. 2024-08-04 02:22:19 S      2023-06-30           21840
 9 2021-01-01       51605. 2026-11-21 04:46:39 S      2023-06-30           21840
10 2021-01-01       50162. 2026-09-22 01:43:51 S      2023-06-30           21840
# ℹ 3,640 more rows
# ℹ 1 more variable: SN <chr>
…
for (i in 1:N_SIM){
  data <- return_gen(eta = 50000, 
                   beta = 3,
                   ship_date_start = 20210101, 
                   ship_date_end = 20211231,
                   shipment_per_day = 10,
                   stop_date = 20230630 )
  surv_data <- data %>% 
  mutate(censored = if_else(status == "F", 1, 0)) %>% 
  select(time = reported_hours, status = censored)
  fitted <- fitted %>% add_row(id = i, weib_fit(surv_data))
}
print(fitted)

# A tibble: 100 × 3
      id beta_fit eta_fit
   <int>    <dbl>   <dbl>
 1     1     3.17  48502.
 2     2     2.62  58395.
 3     3     3.09  49027.
 4     4     2.68  56899.
 5     5     3.36  43774.
 6     6     3.14  47227.
 7     7     2.79  53700.
 8     8     3.17  47413.
 9     9     2.99  51092.
10    10     3.01  50301.
# ℹ 90 more rows
…
