…
    return(data)
}

data <- return_gen(eta = 50000, 
                   beta = 3,
                   ship_date_start = 20210101, 
                   ship_date_end = 20211231,
                   shipment_per_day = 10,
                   stop_date = 20230630
)

data
```

    # A tibble: 3,650 × 7
       ship_date  time2failure fail_date           status return_date reported_hours
       <date>            <dbl> <dttm>              <chr>  <date>               <dbl>
     1 2021-01-01       60597. 2027-11-30 20:54:02 S      2023-06-30           21840
     2 2021-01-01       68737. 2028-11-04 00:57:08 S      2023-06-30           21840
     3 2021-01-01       27217. 2024-02-09 01:22:32 S      2023-06-30           21840
     4 2021-01-01       52015. 2026-12-08 07:07:46 S      2023-06-30           21840
     5 2021-01-01       35262. 2025-01-09 05:45:42 S      2023-06-30           21840
     6 2021-01-01       53024. 2027-01-19 08:11:53 S      2023-06-30           21840
     7 2021-01-01       20124. 2023-04-19 11:51:06 F      2023-04-19           20112
     8 2021-01-01       35664. 2025-01-26 00:25:20 S      2023-06-30           21840
     9 2021-01-01       52398. 2026-12-24 05:59:03 S      2023-06-30           21840
    10 2021-01-01       38422. 2025-05-20 21:59:48 S      2023-06-30           21840
    # ℹ 3,640 more rows
    # ℹ 1 more variable: SN <chr>
…
  data <- return_gen(eta = 50000, 
                   beta = 3,
                   ship_date_start = 20210101, 
                   ship_date_end = 20211231,
                   shipment_per_day = 10,
                   stop_date = 20230630 )
  surv_data <- data %>% 
  mutate(censored = if_else(status == "F", 1, 0)) %>% 
  select(time = reported_hours, status = censored)
  fitted <- fitted %>% add_row(id = i, weib_fit(surv_data))
}
print(fitted)
```

    # A tibble: 100 × 3
          id beta_fit eta_fit
       <int>    <dbl>   <dbl>
     1     1     3.44  44029.
     2     2     3.36  44140.
     3     3     3.05  46862.
     4     4     3.02  51108.
     5     5     2.82  52766.
     6     6     3.11  46979.
     7     7     2.95  49845.
     8     8     2.92  50559.
     9     9     2.99  50948.
    10    10     2.64  58571.
    # ℹ 90 more rows
…
